Tea Plant Growth Simulator
…
# Add stem diameter to data frame
names(stem.diameters) <- paste0("plant", 1:N) #make a named list

growth.data.tidy <- bind_rows(stem.diameters) %>%   #collapse list into a dataframe
  add_column(shoot = as.character(1:n.shoot)) %>%   #add a column for shoot number to make merging easy
  gather(-shoot, key = plant, value = stem.dia) %>% #gather into long format
  full_join(growth.data.tidy)                       #join with data frame by "shoot" and "plant"

## Joining, by = c("shoot", "plant")

#check that it worked
# stem.diameters[[1]][1] == filter(growth.data.tidy, plant == "plant1" & shoot ==  1) %>% select(stem.dia)
growth.data.tidy

## # A tibble: 1,050 x 5
##    shoot plant  stem.dia   Day height
##    <chr> <chr>     <dbl> <int>  <dbl>
##  1 1     plant1    0.250     1   3.00
##  2 1     plant1    0.250     2   3.18
##  3 1     plant1    0.250     3   3.36
##  4 1     plant1    0.250     4   3.55
##  5 1     plant1    0.250     5   3.70
##  6 1     plant1    0.250     6   3.94
##  7 1     plant1    0.250     7   4.14
##  8 1     plant1    0.250     8   4.34
##  9 1     plant1    0.250     9   4.57
## 10 1     plant1    0.250    10   4.81
## #  with 1,040 more rows
…
#first, figure out how to lag heights to get height_t+1
#stats::lag(growth.data.tidy$height, k = -1) #<- this one doesn't seem to work right
#Hmisc::Lag(growth.data.tidy$height, shift = -1) #<-this one works like I'd expect

#r = height_t+1/height_t
growth.rates.data <- growth.data.tidy %>% 
  group_by(plant, shoot) %>% 
  mutate(height_t.1 = Lag(height, shift = -1),
         r = Lag(height, shift = -1)/height,
         temp = daily.temperature)            #might as well add the temperature data while I'm at it

growth.rates.data

## # A tibble: 1,050 x 8
## # Groups:   plant, shoot [70]
##    shoot plant  stem.dia   Day height height_t.1     r    temp
##    <chr> <chr>     <dbl> <int>  <dbl>      <dbl> <dbl>   <dbl>
##  1 1     plant1    0.250     1   3.00       3.18  1.06 -0.584 
##  2 1     plant1    0.250     2   3.18       3.36  1.06 -0.0520
##  3 1     plant1    0.250     3   3.36       3.55  1.06  0.513 
##  4 1     plant1    0.250     4   3.55       3.70  1.04  0.473 
##  5 1     plant1    0.250     5   3.70       3.94  1.07  0.322 
##  6 1     plant1    0.250     6   3.94       4.14  1.05  1.16  
##  7 1     plant1    0.250     7   4.14       4.34  1.05  1.63  
##  8 1     plant1    0.250     8   4.34       4.57  1.05  1.18  
##  9 1     plant1    0.250     9   4.57       4.81  1.05  0.493 
## 10 1     plant1    0.250    10   4.81       4.94  1.03 -0.232 
## #  with 1,040 more rows
…
